{
  "project_info": {
    "project_number": "986667651812",
    "firebase_url": "https://tetris-5eb0a-default-rtdb.firebaseio.com",
    "project_id": "tetris-5eb0a",
    "storage_bucket": "tetris-5eb0a.appspot.com"
  },
  "client": [
    {
      "client_info": {
        "mobilesdk_app_id": "1:986667651812:android:4309f818acb862f83892f1",
        "android_client_info": {
          "package_name": "com.tetris.firebasedb"
        }
      },
      "oauth_client": [
        {
          "client_id": "986667651812-5r4ikkuhactr40mat8jf15dff8abqb7j.apps.googleusercontent.com",
          "client_type": 3
        }
      ],
      "api_key": [
        {
          "current_key": "AIzaSyAXxBu0fZYQfME2VdGXAOl9TxSd_qwmHi8"
        }
      ],
      "services": {
        "appinvite_service": {
          "other_platform_oauth_client": [
            {
              "client_id": "986667651812-5r4ikkuhactr40mat8jf15dff8abqb7j.apps.googleusercontent.com",
              "client_type": 3
            }
          ]
        }
      }
    }
  ],
  "configuration_version": "1"
}